Chapter 9 Data Transformation | PLSC 31101: Computational Tools for Social Science
…
9.3.2 Use arrange() to Row-order Data in a Principled Way

arrange() reorders the rows in a data frame. Imagine you wanted this data ordered by year then country, as opposed to by country then year.

gap %>%
  arrange(year, country)
#> # A tibble: 1,704 x 6
#>   country     continent  year lifeExp      pop gdpPercap
#>   <fct>       <fct>     <int>   <dbl>    <int>     <dbl>
#> 1 Afghanistan Asia       1952    28.8  8425333      779.
#> 2 Albania     Europe     1952    55.2  1282697     1601.
#> 3 Algeria     Africa     1952    43.1  9279525     2449.
#> 4 Angola      Africa     1952    30.0  4232095     3521.
#> 5 Argentina   Americas   1952    62.5 17876956     5911.
#> 6 Australia   Oceania    1952    69.1  8691212    10040.
#> # … with 1,698 more rows

Or maybe you want just the data from 2007, sorted on life expectancy?

gap %>%
  filter(year == 2007) %>%
  arrange(lifeExp)
#> # A tibble: 142 x 6
#>   country      continent  year lifeExp      pop gdpPercap
#>   <fct>        <fct>     <int>   <dbl>    <int>     <dbl>
#> 1 Swaziland    Africa     2007    39.6  1133066     4513.
#> 2 Mozambique   Africa     2007    42.1 19951656      824.
#> 3 Zambia       Africa     2007    42.4 11746035     1271.
#> 4 Sierra Leone Africa     2007    42.6  6144562      863.
#> 5 Lesotho      Africa     2007    42.6  2012649     1569.
#> 6 Angola       Africa     2007    42.7 12420476     4797.
#> # … with 136 more rows

Oh, you would like to sort on life expectancy in descending order? Then use desc().

gap %>%
  filter(year == 2007) %>%
  arrange(desc(lifeExp))
#> # A tibble: 142 x 6
#>   country          continent  year lifeExp       pop gdpPercap
#>   <fct>            <fct>     <int>   <dbl>     <int>     <dbl>
#> 1 Japan            Asia       2007    82.6 127467972    31656.
#> 2 Hong Kong, China Asia       2007    82.2   6980412    39725.
#> 3 Iceland          Europe     2007    81.8    301931    36181.
#> 4 Switzerland      Europe     2007    81.7   7554661    37506.
#> 5 Australia        Oceania    2007    81.2  20434176    34435.
#> 6 Spain            Europe     2007    80.9  40448191    28821.
#> # … with 136 more rows

I advise that your analyses NEVER rely on rows or variables being in a specific order. But it is still true that human beings write the code, and the interactive development process can be much nicer if you reorder the rows of your data as you go along. Also, once you are preparing tables for human eyeballs, it is imperative that you step up and take control of row order.

9.3.3 Use rename() to Rename Variables

When I first cleaned this Gapminder excerpt, I was a camelCase person, but now I am all about snake_case. So I am vexed by the variable names I chose when I cleaned this data years ago. Let’s rename some variables!

gap %>%
  rename(life_exp = lifeExp,
         gdp_percap = gdpPercap)
#> # A tibble: 1,704 x 6
#>   country     continent  year life_exp      pop gdp_percap
#>   <fct>       <fct>     <int>    <dbl>    <int>      <dbl>
#> 1 Afghanistan Asia       1952     28.8  8425333       779.
#> 2 Afghanistan Asia       1957     30.3  9240934       821.
#> 3 Afghanistan Asia       1962     32.0 10267083       853.
#> 4 Afghanistan Asia       1967     34.0 11537966       836.
#> 5 Afghanistan Asia       1972     36.1 13079460       740.
#> 6 Afghanistan Asia       1977     38.4 14880372       786.
#> # … with 1,698 more rows
…
everything() is one of several helpers for variable selection. Read its help to see the rest.

9.3.5 Use count() to Count Variable Quantities

Finally, let’s say we want to examine if the number of countries covered in the Gapminder dataset varies between years. We can use count() to count the number of observations within a set of parameters we choose.

Below, we will specify that we want to count() the number of observations in each year of the dataset:

gap %>%
  dplyr::count(year)
#> # A tibble: 12 x 2
#>    year     n
#>   <int> <int>
#> 1  1952   142
#> 2  1957   142
#> 3  1962   142
#> 4  1967   142
#> 5  1972   142
#> 6  1977   142
#> # … with 6 more rows

We can confirm that each year in the dataset contains the same number of observations. We can use similar syntax to answer other questions: For example, how many countries in each year have a GDP that is greater than $10,000 per capita?

gap %>%
  filter(gdpPercap >= 10000) %>%
  dplyr::count(year) 
#> # A tibble: 12 x 2
#>    year     n
#>   <int> <int>
#> 1  1952     7
#> 2  1957    12
#> 3  1962    19
#> 4  1967    22
#> 5  1972    32
#> 6  1977    41
#> # … with 6 more rows
…
That is already quite powerful, but it gets even better! You are not limited to defining only one new variable in summarize().

gap %>%
  group_by(continent, year) %>%
  summarize(mean_gdpPercap = mean(gdpPercap), 
            sd_gdpPercap = sd(gdpPercap),
            mean_pop = mean(pop),
            sd_pop = sd(pop))
#> `summarise()` regrouping output by 'continent' (override with `.groups` argument)
#> # A tibble: 60 x 6
#> # Groups:   continent [5]
#>   continent  year mean_gdpPercap sd_gdpPercap mean_pop    sd_pop
#>   <fct>     <int>          <dbl>        <dbl>    <dbl>     <dbl>
#> 1 Africa     1952          1253.         983. 4570010.  6317450.
#> 2 Africa     1957          1385.        1135. 5093033.  7076042.
#> 3 Africa     1962          1598.        1462. 5702247.  7957545.
#> 4 Africa     1967          2050.        2848. 6447875.  8985505.
#> 5 Africa     1972          2340.        3287. 7305376. 10130833.
#> 6 Africa     1977          2586.        4142. 8328097. 11585184.
#> # … with 54 more rows

9.4.3 Add New Variables with mutate

What if we wanted to add these values to our original data frame instead of creating a new object?

For this, we can use the mutate() function, which is similar to summarize() except that it creates new variables in the same data frame that you pass into it.

gap %>%
  group_by(continent, year) %>%
  mutate(mean_gdpPercap = mean(gdpPercap), 
            sd_gdpPercap = sd(gdpPercap),
            mean_pop = mean(pop),
            sd_pop = sd(pop))
#> # A tibble: 1,704 x 10
#> # Groups:   continent, year [60]
#>   country continent  year lifeExp    pop gdpPercap mean_gdpPercap sd_gdpPercap
#>   <fct>   <fct>     <int>   <dbl>  <int>     <dbl>          <dbl>        <dbl>
#> 1 Afghan… Asia       1952    28.8 8.43e6      779.          5195.       18635.
#> 2 Afghan… Asia       1957    30.3 9.24e6      821.          5788.       19507.
#> 3 Afghan… Asia       1962    32.0 1.03e7      853.          5729.       16416.
#> 4 Afghan… Asia       1967    34.0 1.15e7      836.          5971.       14063.
#> 5 Afghan… Asia       1972    36.1 1.31e7      740.          8187.       19088.
#> 6 Afghan… Asia       1977    38.4 1.49e7      786.          7791.       11816.
#> # … with 1,698 more rows, and 2 more variables: mean_pop <dbl>, sd_pop <dbl>

We can also use mutate() to create new variables prior to (or even after) summarizing the information.

gap %>%
  mutate(gdp_billion = gdpPercap*pop/10^9) %>%
  group_by(continent, year) %>%
  summarize(mean_gdpPercap = mean(gdpPercap),
            sd_gdpPercap = sd(gdpPercap),
            mean_pop = mean(pop),
            sd_pop = sd(pop),
            mean_gdp_billion = mean(gdp_billion),
            sd_gdp_billion = sd(gdp_billion))
#> `summarise()` regrouping output by 'continent' (override with `.groups` argument)
#> # A tibble: 60 x 8
#> # Groups:   continent [5]
#>   continent  year mean_gdpPercap sd_gdpPercap mean_pop sd_pop mean_gdp_billion
#>   <fct>     <int>          <dbl>        <dbl>    <dbl>  <dbl>            <dbl>
#> 1 Africa     1952          1253.         983. 4570010. 6.32e6             5.99
#> 2 Africa     1957          1385.        1135. 5093033. 7.08e6             7.36
#> 3 Africa     1962          1598.        1462. 5702247. 7.96e6             8.78
#> 4 Africa     1967          2050.        2848. 6447875. 8.99e6            11.4 
#> 5 Africa     1972          2340.        3287. 7305376. 1.01e7            15.1 
#> 6 Africa     1977          2586.        4142. 8328097. 1.16e7            18.7 
#> # … with 54 more rows, and 1 more variable: sd_gdp_billion <dbl>
…
