Chapter 16 Programming in R | PLSC 31101: Computational Tools for Social Science
…
This did not work correctly. Because if() can only handle a single TRUE/FALSE value, it only checked the first row of the data frame. That row contained 28.801, so it generated a vector of length 1704 with each value being 0.

Because we in fact want to make this if-else comparison 1704 times, we should instead use if_else(). This vectorizes the if-else comparison and makes a separate comparison for each row of the data frame. This allows us to correctly generate this new column.

gap_ifelse <- gap %>%
  mutate(life.35 = if_else(lifeExp >= 35, 1, 0))

gap_ifelse
#> # A tibble: 1,704 x 7
#>   country     continent  year lifeExp      pop gdpPercap life.35
#>   <fct>       <fct>     <int>   <dbl>    <int>     <dbl>   <dbl>
#> 1 Afghanistan Asia       1952    28.8  8425333      779.       0
#> 2 Afghanistan Asia       1957    30.3  9240934      821.       0
#> 3 Afghanistan Asia       1962    32.0 10267083      853.       0
#> 4 Afghanistan Asia       1967    34.0 11537966      836.       0
#> 5 Afghanistan Asia       1972    36.1 13079460      740.       1
#> 6 Afghanistan Asia       1977    38.4 14880372      786.       1
#> # … with 1,698 more rows
…
