Chapter 13 Statistical Inferences | PLSC 31101: Computational Tools for Social Science
…
13.2.4 Tidying model data with broom

The broom package, by David Robinson, turn models into tidy data.
broom::tidy(model) returns a row for each coefficient in the model. Each column gives information about the estimate or its variability.

mod_tidy <- tidy(mod)
mod_tidy
#> # A tibble: 8 x 5
#>   term              estimate std.error statistic   p.value
#>   <chr>                <dbl>     <dbl>     <dbl>     <dbl>
#> 1 (Intercept)       -461.      17.0       -27.2  3.96e-135
#> 2 log(gdpPercap)       5.08     0.163      31.2  3.37e-169
#> 3 log(pop)             0.153    0.0967      1.58 1.14e-  1
#> 4 continentAmericas    8.75     0.477      18.3  9.61e- 69
#> 5 continentAsia        6.83     0.423      16.1  1.49e- 54
#> 6 continentEurope     12.3      0.529      23.2  1.12e-103
#> # … with 2 more rows
…
